<svg width="18" height="18" viewBox="0 0 18 18" fill="none" xmlns="http://www.w3.org/2000/svg">
<path d="M9.00067 5.79973V9.80007M8.99627 12.2003H9.00347M9.00067 17.0007C13.401 17.0007 17.0013 13.4004 17.0013 9C17.0013 4.59963 13.401 0.999329 9.00067 0.999329C4.6003 0.999329 1 4.59963 1 9C1 13.4004 4.6003 17.0007 9.00067 17.0007Z" stroke="#5970C3" stroke-width="2" stroke-linecap="round" stroke-linejoin="round"/>
</svg>
